# Exercises

Let's return to one of the questions we asked in the last section: Assuming that a traveler leaves from a given neighborhood, which neighborhoods are they most likely to go to? To answer this question, in we obtained the proportion of trips that fan out into all the different neighborhoods, given that they all start from the same neighborhood. The results are stored in the `rxcs` data. If we sort the data and keep only the relevant columns, it's easier to make sense of it:

```R
rxcs %>%
  select(pickup_nb, dropoff_nb, pct = pct_by_pickup_nb) %>%
  arrange(pickup_nb, desc(pct))
 ```

```Rout
# A tibble: 784 × 3
   pickup_nb         dropoff_nb       pct
      <fctr>             <fctr>     <dbl>
1  Chinatown            Midtown 11.322828
2  Chinatown Financial District  9.755798
3  Chinatown    Lower East Side  8.967900
4  Chinatown       East Village  8.632984
5  Chinatown           Gramercy  8.035631
6  Chinatown  Greenwich Village  7.251824
7  Chinatown            Chelsea  6.614140
8  Chinatown   Garment District  6.065884
9  Chinatown               Soho  4.161017
10 Chinatown            Tribeca  3.981577
# ... with 774 more rows
```
…
